Tidyverse functions & manipulations
…
R projects allow for all the work being done to be in a nice, self-contained folder with all of the scripts, figures and history needed.

What is git and what is github?

Git is a popular version control system that tracks changes made overtime and records them in a repository; github is a cloud platform that hosts those repositories.

What are the two main differences between a tibble and a data.frame?

Tibbles only print the first ten rows of the data and strict subsetting. They also do not rearrange names, ie: "list name" to "list.name" like data frames do.

Rewrite the following nested function call using base R’s chaining operator:

arrange(filter(select(as_tibble(iris), starts_with("Petal"), Species), Petal.Length < 1.55), Species)

# A tibble: 37 × 3
   Petal.Length Petal.Width Species
          <dbl>       <dbl> <fct>  
 1          1.4         0.2 setosa 
 2          1.4         0.2 setosa 
 3          1.3         0.2 setosa 
 4          1.5         0.2 setosa 
 5          1.4         0.2 setosa 
 6          1.4         0.3 setosa 
 7          1.5         0.2 setosa 
 8          1.4         0.2 setosa 
 9          1.5         0.1 setosa 
10          1.5         0.2 setosa 
# ℹ 27 more rows
…
Read in the data, adding column names, printing out the tibble

#read in the data (The column names are set to false because I used a local download of the dataset)
glass_data <- read_csv("./data/glass.data.csv", col_names = FALSE, show_col_types = FALSE)

#rename the columns (I redid this one after looking up how to rename quickly)
oldnames = c("X1", "X2", "X3", "X4", "X5", "X6", "X7", "X8", "X9", "X10", "X11")
newnames = c("Id.number", "RI", "Na", "Mg", "Al", "Si", "K", "Ca", "Ba", "Fe", "Type_of_glass")
glass_data <- glass_data %>% rename_with(~ newnames[which(oldnames == .x)])

#print the tibble 
glass_data

# A tibble: 214 × 11
   Id.number    RI    Na    Mg    Al    Si     K    Ca    Ba    Fe Type_of_glass
       <dbl> <dbl> <dbl> <dbl> <dbl> <dbl> <dbl> <dbl> <dbl> <dbl>         <dbl>
 1         1  1.52  13.6  4.49  1.1   71.8  0.06  8.75     0  0                1
 2         2  1.52  13.9  3.6   1.36  72.7  0.48  7.83     0  0                1
 3         3  1.52  13.5  3.55  1.54  73.0  0.39  7.78     0  0                1
 4         4  1.52  13.2  3.69  1.29  72.6  0.57  8.22     0  0                1
 5         5  1.52  13.3  3.62  1.24  73.1  0.55  8.07     0  0                1
 6         6  1.52  12.8  3.61  1.62  73.0  0.64  8.07     0  0.26             1
 7         7  1.52  13.3  3.6   1.14  73.1  0.58  8.17     0  0                1
 8         8  1.52  13.2  3.61  1.05  73.2  0.57  8.24     0  0                1
 9         9  1.52  14.0  3.58  1.37  72.1  0.56  8.3      0  0                1
10        10  1.52  13    3.6   1.36  73.0  0.57  8.4      0  0.11             1
# ℹ 204 more rows
…
glass_data %>%
  #overwrite the Type_of_glass variable using recode
  mutate(
    Type_of_glass = recode(Type_of_glass,
                           '1' = 'building_windows_float_processed',
                           '2' = 'building_windows_non_float_processed',
                           '3' = 'vehicle_windows_float_processed',
                           '4' = 'vehicle_windows_non_float_processed',
                           '5' = 'containers',
                           '6' = 'tableware',
                           '7' = 'headlamps')) %>% 
  #using filter to drop certain elements
  filter(Type_of_glass %in% c("tableware", "headlamps") & Fe < 0.2)

# A tibble: 38 × 11
   Id.number    RI    Na    Mg    Al    Si     K    Ca    Ba    Fe Type_of_glass
       <dbl> <dbl> <dbl> <dbl> <dbl> <dbl> <dbl> <dbl> <dbl> <dbl> <chr>        
 1       177  1.52  14    2.39  1.56  72.4  0     9.57  0        0 tableware    
 2       178  1.52  13.8  2.41  1.19  72.8  0     9.77  0        0 tableware    
 3       179  1.52  14.5  2.24  1.62  72.4  0     9.26  0        0 tableware    
 4       180  1.52  14.1  2.19  1.66  72.7  0     9.32  0        0 tableware    
 5       181  1.51  14.4  1.74  1.54  74.6  0     7.59  0        0 tableware    
 6       182  1.52  15.0  0.78  1.74  72.5  0     9.95  0        0 tableware    
 7       183  1.52  14.2  0     2.09  72.7  0    10.9   0        0 tableware    
 8       184  1.52  14.6  0     0.56  73.5  0    11.2   0        0 tableware    
 9       185  1.51  17.4  0     0.34  75.4  0     6.65  0        0 tableware    
10       186  1.51  13.7  3.2   1.81  72.8  1.76  5.43  1.19     0 headlamps    
# ℹ 28 more rows
…
#printing the tibble
yeast_data

# A tibble: 1,484 × 10
   X1            X2    X3    X4    X5    X6    X7    X8    X9 X10  
   <chr>      <dbl> <dbl> <dbl> <dbl> <dbl> <dbl> <dbl> <dbl> <chr>
 1 ADT1_YEAST  0.58  0.61  0.47  0.13   0.5   0    0.48  0.22 MIT  
 2 ADT2_YEAST  0.43  0.67  0.48  0.27   0.5   0    0.53  0.22 MIT  
 3 ADT3_YEAST  0.64  0.62  0.49  0.15   0.5   0    0.53  0.22 MIT  
 4 AAR2_YEAST  0.58  0.44  0.57  0.13   0.5   0    0.54  0.22 NUC  
 5 AATM_YEAST  0.42  0.44  0.48  0.54   0.5   0    0.48  0.22 MIT  
 6 AATC_YEAST  0.51  0.4   0.56  0.17   0.5   0.5  0.49  0.22 CYT  
 7 ABC1_YEAST  0.5   0.54  0.48  0.65   0.5   0    0.53  0.22 MIT  
 8 BAF1_YEAST  0.48  0.45  0.59  0.2    0.5   0    0.58  0.34 NUC  
 9 ABF2_YEAST  0.55  0.5   0.66  0.36   0.5   0    0.49  0.22 MIT  
10 ABP1_YEAST  0.4   0.39  0.6   0.15   0.5   0    0.58  0.3  CYT  
# ℹ 1,474 more rows
…
  ) |>
  #dropping Sequence.Name column
  select(class, !c(seq_name, nuc)) |>
  #sorting to pull class to the first column
  select(class, everything()) |>
  #grouping by class variable
  group_by(class) |>
  #creating new columns to calculate means of num columns 
  mutate(across(where(is.numeric), list(mean = mean, median = median))) |>
  #reducing the number of 
  mutate(across(where(is.numeric), ~ num(., digits = 2))) |>
  #printing all the columns
  print(width=Inf)

# A tibble: 1,484 × 22
# Groups:   class [10]
   class       mcg       gvh       alm       mit       erl       pox       vac
   <chr> <num:.2!> <num:.2!> <num:.2!> <num:.2!> <num:.2!> <num:.2!> <num:.2!>
 1 MIT        0.58      0.61      0.47      0.13      0.50      0.00      0.48
 2 MIT        0.43      0.67      0.48      0.27      0.50      0.00      0.53
 3 MIT        0.64      0.62      0.49      0.15      0.50      0.00      0.53
 4 NUC        0.58      0.44      0.57      0.13      0.50      0.00      0.54
 5 MIT        0.42      0.44      0.48      0.54      0.50      0.00      0.48
 6 CYT        0.51      0.40      0.56      0.17      0.50      0.50      0.49
 7 MIT        0.50      0.54      0.48      0.65      0.50      0.00      0.53
 8 NUC        0.48      0.45      0.59      0.20      0.50      0.00      0.58
 9 MIT        0.55      0.50      0.66      0.36      0.50      0.00      0.49
10 CYT        0.40      0.39      0.60      0.15      0.50      0.00      0.58
    mcg_mean mcg_median  gvh_mean gvh_median  alm_mean alm_median  mit_mean
   <num:.2!>  <num:.2!> <num:.2!>  <num:.2!> <num:.2!>  <num:.2!> <num:.2!>
 1      0.52       0.51      0.53       0.53      0.52       0.52      0.40
 2      0.52       0.51      0.53       0.53      0.52       0.52      0.40
 3      0.52       0.51      0.53       0.53      0.52       0.52      0.40
 4      0.45       0.45      0.46       0.46      0.53       0.53      0.23
 5      0.52       0.51      0.53       0.53      0.52       0.52      0.40
 6      0.48       0.48      0.47       0.46      0.54       0.53      0.23
 7      0.52       0.51      0.53       0.53      0.52       0.52      0.40
 8      0.45       0.45      0.46       0.46      0.53       0.53      0.23
 9      0.52       0.51      0.53       0.53      0.52       0.52      0.40
10      0.48       0.48      0.47       0.46      0.54       0.53      0.23
   mit_median  erl_mean erl_median  pox_mean pox_median  vac_mean vac_median
    <num:.2!> <num:.2!>  <num:.2!> <num:.2!>  <num:.2!> <num:.2!>  <num:.2!>
 1       0.41      0.50       0.50      0.01       0.00      0.50       0.50
 2       0.41      0.50       0.50      0.01       0.00      0.50       0.50
 3       0.41      0.50       0.50      0.01       0.00      0.50       0.50
 4       0.20      0.50       0.50      0.00       0.00      0.49       0.50
 5       0.41      0.50       0.50      0.01       0.00      0.50       0.50
 6       0.19      0.50       0.50      0.00       0.00      0.50       0.51
 7       0.41      0.50       0.50      0.01       0.00      0.50       0.50
 8       0.20      0.50       0.50      0.00       0.00      0.49       0.50
 9       0.41      0.50       0.50      0.01       0.00      0.50       0.50
10       0.19      0.50       0.50      0.00       0.00      0.50       0.51
# ℹ 1,474 more rows

Task 2: Combining Excel and Delimited Data

Importing the data from the first sheet using readxl and printing out the tibble.

#reading in an excel sheet with non-standard names
white_wine_data <- read_excel("./data/white-wine.xlsx")

#printing the tibblle
white_wine_data

# A tibble: 4,898 × 12
   `fixed acidity` `volatile acidity` `citric acid` `residual sugar` chlorides
             <dbl>              <dbl>         <dbl>            <dbl>     <dbl>
 1               7               0.27          0.36             20.7     0.045
 2              63               0.3           0.34              1.6     0.049
 3              81               0.28          0.4               6.9     0.05 
 4              72               0.23          0.32              8.5     0.058
 5              72               0.23          0.32              8.5     0.058
 6              81               0.28          0.4               6.9     0.05 
 7              62               0.32          0.16              7       0.045
 8               7               0.27          0.36             20.7     0.045
 9              63               0.3           0.34              1.6     0.049
10              81               0.22          0.43              1.5     0.044
# ℹ 4,888 more rows
# ℹ 7 more variables: `free sulfur dioxide` <dbl>,
#   `total sulfur dioxide` <dbl>, density <dbl>, pH <dbl>, sulphates <dbl>,
#   alcohol <dbl>, quality <dbl>
…
#renaming the columns using the second sheet
colnames(white_wine_data) <- white_wine_names$Variables

Adding a column with white whine type

#create a new object to store edits
white_wine_edit <- white_wine_data |>
  #adding a column with white as wine type
  mutate(wine_type = "white") |>
  #printing the edits 
  print()

# A tibble: 4,898 × 13
   fixed_acidity volatile_acidity citric_acid residual_sugar chlorides
           <dbl>            <dbl>       <dbl>          <dbl>     <dbl>
 1             7             0.27        0.36           20.7     0.045
 2            63             0.3         0.34            1.6     0.049
 3            81             0.28        0.4             6.9     0.05 
 4            72             0.23        0.32            8.5     0.058
 5            72             0.23        0.32            8.5     0.058
 6            81             0.28        0.4             6.9     0.05 
 7            62             0.32        0.16            7       0.045
 8             7             0.27        0.36           20.7     0.045
 9            63             0.3         0.34            1.6     0.049
10            81             0.22        0.43            1.5     0.044
# ℹ 4,888 more rows
# ℹ 8 more variables: free_sulfur_dioxide <dbl>, total_sulfur_dioxide <dbl>,
#   density <dbl>, pH <dbl>, sulphates <dbl>, alcohol <dbl>, quality <dbl>,
#   wine_type <chr>

Repeating read in with red wine data, renaming columns and adding wine type

#reading in an excel sheet with non-standard names
red_wine_data <- read_delim("./data/red-wine.csv", delim = ";", show_col_types = FALSE)

#printing the tibblle
red_wine_data

# A tibble: 1,599 × 12
   `fixed acidity` `volatile acidity` `citric acid` `residual sugar` chlorides
             <dbl>              <dbl>         <dbl>            <dbl>     <dbl>
 1             7.4               0.7           0                 1.9     0.076
 2             7.8               0.88          0                 2.6     0.098
 3             7.8               0.76          0.04              2.3     0.092
 4            11.2               0.28          0.56              1.9     0.075
 5             7.4               0.7           0                 1.9     0.076
 6             7.4               0.66          0                 1.8     0.075
 7             7.9               0.6           0.06              1.6     0.069
 8             7.3               0.65          0                 1.2     0.065
 9             7.8               0.58          0.02              2       0.073
10             7.5               0.5           0.36              6.1     0.071
# ℹ 1,589 more rows
# ℹ 7 more variables: `free sulfur dioxide` <dbl>,
#   `total sulfur dioxide` <dbl>, density <dbl>, pH <dbl>, sulphates <dbl>,
#   alcohol <dbl>, quality <dbl>

#create a new object to store edits
red_wine_edit <- red_wine_data |> 
  #cleaning column names
  clean_names() |>
  #renaming p_h to pH
  rename("pH" = p_h) |>
  #adding a column with red as wine type
  mutate(
    wine_type = "red"
    ) |>
  #printing the edits 
  print()

# A tibble: 1,599 × 13
   fixed_acidity volatile_acidity citric_acid residual_sugar chlorides
           <dbl>            <dbl>       <dbl>          <dbl>     <dbl>
 1           7.4             0.7         0               1.9     0.076
 2           7.8             0.88        0               2.6     0.098
 3           7.8             0.76        0.04            2.3     0.092
 4          11.2             0.28        0.56            1.9     0.075
 5           7.4             0.7         0               1.9     0.076
 6           7.4             0.66        0               1.8     0.075
 7           7.9             0.6         0.06            1.6     0.069
 8           7.3             0.65        0               1.2     0.065
 9           7.8             0.58        0.02            2       0.073
10           7.5             0.5         0.36            6.1     0.071
# ℹ 1,589 more rows
# ℹ 8 more variables: free_sulfur_dioxide <dbl>, total_sulfur_dioxide <dbl>,
#   density <dbl>, pH <dbl>, sulphates <dbl>, alcohol <dbl>, quality <dbl>,
#   wine_type <chr>

Combining data sets

#creating an object and binding both datasets together
wine_data <- bind_rows(white_wine_edit, red_wine_edit)

#printing the tibble
wine_data

# A tibble: 6,497 × 13
   fixed_acidity volatile_acidity citric_acid residual_sugar chlorides
           <dbl>            <dbl>       <dbl>          <dbl>     <dbl>
 1             7             0.27        0.36           20.7     0.045
 2            63             0.3         0.34            1.6     0.049
 3            81             0.28        0.4             6.9     0.05 
 4            72             0.23        0.32            8.5     0.058
 5            72             0.23        0.32            8.5     0.058
 6            81             0.28        0.4             6.9     0.05 
 7            62             0.32        0.16            7       0.045
 8             7             0.27        0.36           20.7     0.045
 9            63             0.3         0.34            1.6     0.049
10            81             0.22        0.43            1.5     0.044
# ℹ 6,487 more rows
# ℹ 8 more variables: free_sulfur_dioxide <dbl>, total_sulfur_dioxide <dbl>,
#   density <dbl>, pH <dbl>, sulphates <dbl>, alcohol <dbl>, quality <dbl>,
#   wine_type <chr>
…
  filter(quality > 6.5 & alcohol < 132) |>
  #arrangeing in descending order by quality 
  arrange(desc(quality)) |>
  #printing the tibble
  print() |>
  #selecting only the columns that have "acid" in name, alchohol, quality and wine type
  select(contains("acid"), alcohol, quality, wine_type) |>
  #printing
  print() |>
  #grouping by quality for the summary step
  group_by(quality) |>
  #summarizing the tibble by quality grouping
  mutate(across(alcohol, list(mean = mean, sd = sd)))

# A tibble: 1,206 × 13
   fixed_acidity volatile_acidity citric_acid residual_sugar chlorides
           <dbl>            <dbl>       <dbl>          <dbl>     <dbl>
 1            91             0.27        0.45           10.6     0.035
 2            66             0.36        0.29            1.6     0.021
 3            74             0.24        0.36            2       0.031
 4            69             0.36        0.34            4.2     0.018
 5            71             0.26        0.49            2.2     0.032
 6            62             0.66        0.48            1.2     0.029
 7            62             0.66        0.48            1.2     0.029
 8            68             0.26        0.42            1.7     0.049
 9            67             0.23        0.31            2.1     0.046
10            67             0.23        0.31            2.1     0.046
# ℹ 1,196 more rows
# ℹ 8 more variables: free_sulfur_dioxide <dbl>, total_sulfur_dioxide <dbl>,
#   density <dbl>, pH <dbl>, sulphates <dbl>, alcohol <dbl>, quality <dbl>,
#   wine_type <chr>
# A tibble: 1,206 × 6
   fixed_acidity volatile_acidity citric_acid alcohol quality wine_type
           <dbl>            <dbl>       <dbl>   <dbl>   <dbl> <chr>    
 1            91             0.27        0.45     104       9 white    
 2            66             0.36        0.29     124       9 white    
 3            74             0.24        0.36     125       9 white    
 4            69             0.36        0.34     127       9 white    
 5            71             0.26        0.49     129       9 white    
 6            62             0.66        0.48     128       8 white    
 7            62             0.66        0.48     128       8 white    
 8            68             0.26        0.42     105       8 white    
 9            67             0.23        0.31     107       8 white    
10            67             0.23        0.31     107       8 white    
# ℹ 1,196 more rows

# A tibble: 1,206 × 8
# Groups:   quality [3]
   fixed_acidity volatile_acidity citric_acid alcohol quality wine_type
           <dbl>            <dbl>       <dbl>   <dbl>   <dbl> <chr>    
 1            91             0.27        0.45     104       9 white    
 2            66             0.36        0.29     124       9 white    
 3            74             0.24        0.36     125       9 white    
 4            69             0.36        0.34     127       9 white    
 5            71             0.26        0.49     129       9 white    
 6            62             0.66        0.48     128       8 white    
 7            62             0.66        0.48     128       8 white    
 8            68             0.26        0.42     105       8 white    
 9            67             0.23        0.31     107       8 white    
10            67             0.23        0.31     107       8 white    
# ℹ 1,196 more rows
# ℹ 2 more variables: alcohol_mean <dbl>, alcohol_sd <dbl>
…
Return all of the players in “HallOfFame”, year voted in, and category.

#creating an object for later (needed to add the `as_tibble` part due to error)
halloffame <- as_tibble(tbl(con, "HallOfFame")) |>
  #filtering by induction and player category
  filter(inducted == "Y" & category == "Player") |>
  #arranging alphabetically
  arrange(playerID) |>
  #selecting only the needed columns
  select(playerID, yearID, category) |>
  #printing
  print()

# A tibble: 270 × 3
   playerID  yearID category
   <chr>      <int> <chr>   
 1 aaronha01   1982 Player  
 2 alexape01   1938 Player  
 3 alomaro01   2011 Player  
 4 ansonca01   1939 Player  
 5 aparilu01   1984 Player  
 6 applilu01   1964 Player  
 7 ashburi01   1995 Player  
 8 averiea01   1975 Player  
 9 bagweje01   2017 Player  
10 baineha01   2019 Player  
# ℹ 260 more rows
…
